==153433== Cachegrind, a cache and branch-prediction profiler
==153433== Copyright (C) 2002-2017, and GNU GPL'd, by Nicholas Nethercote et al.
==153433== Using Valgrind-3.17.0 and LibVEX; rerun with -h for copyright info
==153433== Command: ./cmake-build-debug/Zadatak1_Proj 7680 4320
==153433== Parent PID: 153432
==153433== 
--153433-- warning: L3 cache found, using its data for the LL simulation.
==153433== brk segment overflow in thread #1: can't grow to 0x4c6b000
==153433== (see section Limitations in user manual)
==153433== NOTE: further instances of this message will not be shown
==153433== 
==153433== I   refs:      208,561,584,056
==153433== I1  misses:              2,754
==153433== LLi misses:              2,724
==153433== I1  miss rate:            0.00%
==153433== LLi miss rate:            0.00%
==153433== 
==153433== D   refs:      125,003,018,327  (69,305,772,333 rd   + 55,697,245,994 wr)
==153433== D1  misses:        471,307,280  (   383,883,504 rd   +     87,423,776 wr)
==153433== LLd misses:        465,427,301  (   378,004,554 rd   +     87,422,747 wr)
==153433== D1  miss rate:             0.4% (           0.6%     +            0.2%  )
==153433== LLd miss rate:             0.4% (           0.5%     +            0.2%  )
==153433== 
==153433== LL refs:           471,310,034  (   383,886,258 rd   +     87,423,776 wr)
==153433== LL misses:         465,430,025  (   378,007,278 rd   +     87,422,747 wr)
==153433== LL miss rate:              0.1% (           0.1%     +            0.2%  )
