==184452== Cachegrind, a cache and branch-prediction profiler
==184452== Copyright (C) 2002-2017, and GNU GPL'd, by Nicholas Nethercote et al.
==184452== Using Valgrind-3.17.0 and LibVEX; rerun with -h for copyright info
==184452== Command: ./cmake-build-debug/matrix_mult_n 100 100 100 100
==184452== Parent PID: 184451
==184452== 
--184452-- warning: L3 cache found, using its data for the LL simulation.
==184452== 
==184452== I   refs:      52,219,047
==184452== I1  misses:         1,409
==184452== LLi misses:         1,406
==184452== I1  miss rate:       0.00%
==184452== LLi miss rate:       0.00%
==184452== 
==184452== D   refs:      23,966,088  (22,752,718 rd   + 1,213,370 wr)
==184452== D1  misses:     1,278,190  ( 1,272,375 rd   +     5,815 wr)
==184452== LLd misses:         5,719  (     1,281 rd   +     4,438 wr)
==184452== D1  miss rate:        5.3% (       5.6%     +       0.5%  )
==184452== LLd miss rate:        0.0% (       0.0%     +       0.4%  )
==184452== 
==184452== LL refs:        1,279,599  ( 1,273,784 rd   +     5,815 wr)
==184452== LL misses:          7,125  (     2,687 rd   +     4,438 wr)
==184452== LL miss rate:         0.0% (       0.0%     +       0.4%  )
