==146881== Cachegrind, a cache and branch-prediction profiler
==146881== Copyright (C) 2002-2017, and GNU GPL'd, by Nicholas Nethercote et al.
==146881== Using Valgrind-3.17.0 and LibVEX; rerun with -h for copyright info
==146881== Command: ./cmake-build-debug/Zadatak1_Proj 1920 1080
==146881== Parent PID: 146880
==146881== 
--146881-- warning: L3 cache found, using its data for the LL simulation.
==146881== brk segment overflow in thread #1: can't grow to 0x4c6b000
==146881== (see section Limitations in user manual)
==146881== NOTE: further instances of this message will not be shown
==146881== 
==146881== I   refs:      13,035,183,911
==146881== I1  misses:             3,022
==146881== LLi misses:             2,886
==146881== I1  miss rate:           0.00%
==146881== LLi miss rate:           0.00%
==146881== 
==146881== D   refs:       7,814,274,424  (4,332,423,051 rd   + 3,481,851,373 wr)
==146881== D1  misses:        29,418,999  (   23,952,432 rd   +     5,466,567 wr)
==146881== LLd misses:        26,060,854  (   20,595,315 rd   +     5,465,539 wr)
==146881== D1  miss rate:            0.4% (          0.6%     +           0.2%  )
==146881== LLd miss rate:            0.3% (          0.5%     +           0.2%  )
==146881== 
==146881== LL refs:           29,422,021  (   23,955,454 rd   +     5,466,567 wr)
==146881== LL misses:         26,063,740  (   20,598,201 rd   +     5,465,539 wr)
==146881== LL miss rate:             0.1% (          0.1%     +           0.2%  )
