==146770== Cachegrind, a cache and branch-prediction profiler
==146770== Copyright (C) 2002-2017, and GNU GPL'd, by Nicholas Nethercote et al.
==146770== Using Valgrind-3.17.0 and LibVEX; rerun with -h for copyright info
==146770== Command: ./cmake-build-debug/Zadatak1_Proj 1920 1080
==146770== Parent PID: 146769
==146770== 
--146770-- warning: L3 cache found, using its data for the LL simulation.
==146770== brk segment overflow in thread #1: can't grow to 0x4c6b000
==146770== (see section Limitations in user manual)
==146770== NOTE: further instances of this message will not be shown
==146770== 
==146770== I   refs:      13,035,181,850
==146770== I1  misses:        72,590,394
==146770== LLi misses:             4,343
==146770== I1  miss rate:           0.56%
==146770== LLi miss rate:           0.00%
==146770== 
==146770== D   refs:       7,814,273,320  (4,332,422,430 rd   + 3,481,850,890 wr)
==146770== D1  misses:        29,417,413  (   23,950,846 rd   +     5,466,567 wr)
==146770== LLd misses:        26,060,877  (   20,595,338 rd   +     5,465,539 wr)
==146770== D1  miss rate:            0.4% (          0.6%     +           0.2%  )
==146770== LLd miss rate:            0.3% (          0.5%     +           0.2%  )
==146770== 
==146770== LL refs:          102,007,807  (   96,541,240 rd   +     5,466,567 wr)
==146770== LL misses:         26,065,220  (   20,599,681 rd   +     5,465,539 wr)
==146770== LL miss rate:             0.1% (          0.1%     +           0.2%  )
