==141435== Cachegrind, a cache and branch-prediction profiler
==141435== Copyright (C) 2002-2017, and GNU GPL'd, by Nicholas Nethercote et al.
==141435== Using Valgrind-3.17.0 and LibVEX; rerun with -h for copyright info
==141435== Command: ./cmake-build-debug/Zadatak1_Proj 1920 1080
==141435== Parent PID: 141434
==141435== 
--141435-- warning: L3 cache found, using its data for the LL simulation.
==141435== brk segment overflow in thread #1: can't grow to 0x4c6b000
==141435== (see section Limitations in user manual)
==141435== NOTE: further instances of this message will not be shown
==141435== 
==141435== I   refs:      13,035,191,142
==141435== I1  misses:             2,750
==141435== LLi misses:             2,750
==141435== I1  miss rate:           0.00%
==141435== LLi miss rate:           0.00%
==141435== 
==141435== D   refs:       7,814,278,277  (4,332,425,216 rd   + 3,481,853,061 wr)
==141435== D1  misses:        22,163,640  (   16,697,074 rd   +     5,466,566 wr)
==141435== LLd misses:        22,157,090  (   16,690,545 rd   +     5,466,545 wr)
==141435== D1  miss rate:            0.3% (          0.4%     +           0.2%  )
==141435== LLd miss rate:            0.3% (          0.4%     +           0.2%  )
==141435== 
==141435== LL refs:           22,166,390  (   16,699,824 rd   +     5,466,566 wr)
==141435== LL misses:         22,159,840  (   16,693,295 rd   +     5,466,545 wr)
==141435== LL miss rate:             0.1% (          0.1%     +           0.2%  )
