==185057== Cachegrind, a cache and branch-prediction profiler
==185057== Copyright (C) 2002-2017, and GNU GPL'd, by Nicholas Nethercote et al.
==185057== Using Valgrind-3.17.0 and LibVEX; rerun with -h for copyright info
==185057== Command: ./cmake-build-debug/matrix_mult_n 142 142 142 142
==185057== Parent PID: 185056
==185057== 
--185057-- warning: L3 cache found, using its data for the LL simulation.
==185057== 
==185057== I   refs:      147,433,522
==185057== I1  misses:          1,407
==185057== LLi misses:          1,404
==185057== I1  miss rate:        0.00%
==185057== LLi miss rate:        0.00%
==185057== 
==185057== D   refs:       67,736,226  (64,462,466 rd   + 3,273,760 wr)
==185057== D1  misses:        378,826  (   370,038 rd   +     8,788 wr)
==185057== LLd misses:          9,577  (     1,281 rd   +     8,296 wr)
==185057== D1  miss rate:         0.6% (       0.6%     +       0.3%  )
==185057== LLd miss rate:         0.0% (       0.0%     +       0.3%  )
==185057== 
==185057== LL refs:           380,233  (   371,445 rd   +     8,788 wr)
==185057== LL misses:          10,981  (     2,685 rd   +     8,296 wr)
==185057== LL miss rate:          0.0% (       0.0%     +       0.3%  )
