==185083== Cachegrind, a cache and branch-prediction profiler
==185083== Copyright (C) 2002-2017, and GNU GPL'd, by Nicholas Nethercote et al.
==185083== Using Valgrind-3.17.0 and LibVEX; rerun with -h for copyright info
==185083== Command: ./cmake-build-debug/matrix_mult_n 155 155 155 155
==185083== Parent PID: 185082
==185083== 
--185083-- warning: L3 cache found, using its data for the LL simulation.
==185083== 
==185083== I   refs:      191,238,810
==185083== I1  misses:          1,408
==185083== LLi misses:          1,405
==185083== I1  miss rate:        0.00%
==185083== LLi miss rate:        0.00%
==185083== 
==185083== D   refs:       87,876,479  (83,667,518 rd   + 4,208,961 wr)
==185083== D1  misses:        486,566  (   476,334 rd   +    10,232 wr)
==185083== LLd misses:         10,981  (     1,281 rd   +     9,700 wr)
==185083== D1  miss rate:         0.6% (       0.6%     +       0.2%  )
==185083== LLd miss rate:         0.0% (       0.0%     +       0.2%  )
==185083== 
==185083== LL refs:           487,974  (   477,742 rd   +    10,232 wr)
==185083== LL misses:          12,386  (     2,686 rd   +     9,700 wr)
==185083== LL miss rate:          0.0% (       0.0%     +       0.2%  )
