==185127== Cachegrind, a cache and branch-prediction profiler
==185127== Copyright (C) 2002-2017, and GNU GPL'd, by Nicholas Nethercote et al.
==185127== Using Valgrind-3.17.0 and LibVEX; rerun with -h for copyright info
==185127== Command: ./cmake-build-debug/matrix_mult_n 173 173 173 173
==185127== Parent PID: 185126
==185127== 
--185127-- warning: L3 cache found, using its data for the LL simulation.
==185127== 
==185127== I   refs:      265,116,197
==185127== I1  misses:          1,408
==185127== LLi misses:          1,405
==185127== I1  miss rate:        0.00%
==185127== LLi miss rate:        0.00%
==185127== 
==185127== D   refs:      121,844,634  (116,067,913 rd   + 5,776,721 wr)
==185127== D1  misses:        673,015  (    660,501 rd   +    12,514 wr)
==185127== LLd misses:         13,209  (      1,281 rd   +    11,928 wr)
==185127== D1  miss rate:         0.6% (        0.6%     +       0.2%  )
==185127== LLd miss rate:         0.0% (        0.0%     +       0.2%  )
==185127== 
==185127== LL refs:           674,423  (    661,909 rd   +    12,514 wr)
==185127== LL misses:          14,614  (      2,686 rd   +    11,928 wr)
==185127== LL miss rate:          0.0% (        0.0%     +       0.2%  )
