==185182== Cachegrind, a cache and branch-prediction profiler
==185182== Copyright (C) 2002-2017, and GNU GPL'd, by Nicholas Nethercote et al.
==185182== Using Valgrind-3.17.0 and LibVEX; rerun with -h for copyright info
==185182== Command: ./cmake-build-debug/matrix_mult_n 196 196 196 196
==185182== Parent PID: 185181
==185182== 
--185182-- warning: L3 cache found, using its data for the LL simulation.
==185182== 
==185182== I   refs:      384,408,838
==185182== I1  misses:          1,405
==185182== LLi misses:          1,402
==185182== I1  miss rate:        0.00%
==185182== LLi miss rate:        0.00%
==185182== 
==185182== D   refs:      176,697,244  (168,405,269 rd   + 8,291,975 wr)
==185182== D1  misses:        978,347  (    962,489 rd   +    15,858 wr)
==185182== LLd misses:         16,483  (      1,281 rd   +    15,202 wr)
==185182== D1  miss rate:         0.6% (        0.6%     +       0.2%  )
==185182== LLd miss rate:         0.0% (        0.0%     +       0.2%  )
==185182== 
==185182== LL refs:           979,752  (    963,894 rd   +    15,858 wr)
==185182== LL misses:          17,885  (      2,683 rd   +    15,202 wr)
==185182== LL miss rate:          0.0% (        0.0%     +       0.2%  )
