==185338== Cachegrind, a cache and branch-prediction profiler
==185338== Copyright (C) 2002-2017, and GNU GPL'd, by Nicholas Nethercote et al.
==185338== Using Valgrind-3.17.0 and LibVEX; rerun with -h for copyright info
==185338== Command: ./cmake-build-debug/matrix_mult_n 258 258 258 258
==185338== Parent PID: 185337
==185338== 
--185338-- warning: L3 cache found, using its data for the LL simulation.
==185338== 
==185338== I   refs:      872,242,570
==185338== I1  misses:          1,405
==185338== LLi misses:          1,402
==185338== I1  miss rate:        0.00%
==185338== LLi miss rate:        0.00%
==185338== 
==185338== D   refs:      401,028,650  (382,551,945 rd   + 18,476,705 wr)
==185338== D1  misses:      2,209,053  (  2,182,384 rd   +     26,669 wr)
==185338== LLd misses:         27,108  (      1,281 rd   +     25,827 wr)
==185338== D1  miss rate:         0.6% (        0.6%     +        0.1%  )
==185338== LLd miss rate:         0.0% (        0.0%     +        0.1%  )
==185338== 
==185338== LL refs:         2,210,458  (  2,183,789 rd   +     26,669 wr)
==185338== LL misses:          28,510  (      2,683 rd   +     25,827 wr)
==185338== LL miss rate:          0.0% (        0.0%     +        0.1%  )
