==185355== Cachegrind, a cache and branch-prediction profiler
==185355== Copyright (C) 2002-2017, and GNU GPL'd, by Nicholas Nethercote et al.
==185355== Using Valgrind-3.17.0 and LibVEX; rerun with -h for copyright info
==185355== Command: ./cmake-build-debug/matrix_mult_n 265 265 265 265
==185355== Parent PID: 185354
==185355== 
--185355-- warning: L3 cache found, using its data for the LL simulation.
==185355== 
==185355== I   refs:      944,780,511
==185355== I1  misses:          1,408
==185355== LLi misses:          1,405
==185355== I1  miss rate:        0.00%
==185355== LLi miss rate:        0.00%
==185355== 
==185355== D   refs:      434,386,784  (414,403,721 rd   + 19,983,063 wr)
==185355== D1  misses:      2,385,401  (  2,357,430 rd   +     27,971 wr)
==185355== LLd misses:         28,389  (      1,281 rd   +     27,108 wr)
==185355== D1  miss rate:         0.5% (        0.6%     +        0.1%  )
==185355== LLd miss rate:         0.0% (        0.0%     +        0.1%  )
==185355== 
==185355== LL refs:         2,386,809  (  2,358,838 rd   +     27,971 wr)
==185355== LL misses:          29,794  (      2,686 rd   +     27,108 wr)
==185355== LL miss rate:          0.0% (        0.0%     +        0.1%  )
