==185457== Cachegrind, a cache and branch-prediction profiler
==185457== Copyright (C) 2002-2017, and GNU GPL'd, by Nicholas Nethercote et al.
==185457== Using Valgrind-3.17.0 and LibVEX; rerun with -h for copyright info
==185457== Command: ./cmake-build-debug/matrix_mult_n 295 295 295 295
==185457== Parent PID: 185456
==185457== 
--185457-- warning: L3 cache found, using its data for the LL simulation.
==185457== 
==185457== I   refs:      1,301,276,701
==185457== I1  misses:            1,405
==185457== LLi misses:            1,402
==185457== I1  miss rate:          0.00%
==185457== LLi miss rate:          0.00%
==185457== 
==185457== D   refs:        598,332,434  (570,964,524 rd   + 27,367,910 wr)
==185457== D1  misses:        3,298,779  (  3,264,396 rd   +     34,383 wr)
==185457== LLd misses:           34,711  (      1,281 rd   +     33,430 wr)
==185457== D1  miss rate:           0.6% (        0.6%     +        0.1%  )
==185457== LLd miss rate:           0.0% (        0.0%     +        0.1%  )
==185457== 
==185457== LL refs:           3,300,184  (  3,265,801 rd   +     34,383 wr)
==185457== LL misses:            36,113  (      2,683 rd   +     33,430 wr)
==185457== LL miss rate:            0.0% (        0.0%     +        0.1%  )
