==185544== Cachegrind, a cache and branch-prediction profiler
==185544== Copyright (C) 2002-2017, and GNU GPL'd, by Nicholas Nethercote et al.
==185544== Using Valgrind-3.17.0 and LibVEX; rerun with -h for copyright info
==185544== Command: ./cmake-build-debug/matrix_mult_n 315 315 315 315
==185544== Parent PID: 185543
==185544== 
--185544-- warning: L3 cache found, using its data for the LL simulation.
==185544== 
==185544== I   refs:      1,582,889,557
==185544== I1  misses:            1,408
==185544== LLi misses:            1,405
==185544== I1  miss rate:          0.00%
==185544== LLi miss rate:          0.00%
==185544== 
==185544== D   refs:        727,843,524  (694,658,391 rd   + 33,185,133 wr)
==185544== D1  misses:        4,175,590  (  4,136,557 rd   +     39,033 wr)
==185544== LLd misses:           39,301  (      1,281 rd   +     38,020 wr)
==185544== D1  miss rate:           0.6% (        0.6%     +        0.1%  )
==185544== LLd miss rate:           0.0% (        0.0%     +        0.1%  )
==185544== 
==185544== LL refs:           4,176,998  (  4,137,965 rd   +     39,033 wr)
==185544== LL misses:            40,706  (      2,686 rd   +     38,020 wr)
==185544== LL miss rate:            0.0% (        0.0%     +        0.1%  )
