==185593== Cachegrind, a cache and branch-prediction profiler
==185593== Copyright (C) 2002-2017, and GNU GPL'd, by Nicholas Nethercote et al.
==185593== Using Valgrind-3.17.0 and LibVEX; rerun with -h for copyright info
==185593== Command: ./cmake-build-debug/matrix_mult_n 329 329 329 329
==185593== Parent PID: 185592
==185593== 
--185593-- warning: L3 cache found, using its data for the LL simulation.
==185593== 
==185593== I   refs:      1,802,461,450
==185593== I1  misses:            1,405
==185593== LLi misses:            1,402
==185593== I1  miss rate:          0.00%
==185593== LLi miss rate:          0.00%
==185593== 
==185593== D   refs:        828,823,862  (791,110,645 rd   + 37,713,217 wr)
==185593== D1  misses:        5,072,322  (  5,029,855 rd   +     42,467 wr)
==185593== LLd misses:           42,693  (      1,281 rd   +     41,412 wr)
==185593== D1  miss rate:           0.6% (        0.6%     +        0.1%  )
==185593== LLd miss rate:           0.0% (        0.0%     +        0.1%  )
==185593== 
==185593== LL refs:           5,073,727  (  5,031,260 rd   +     42,467 wr)
==185593== LL misses:            44,095  (      2,683 rd   +     41,412 wr)
==185593== LL miss rate:            0.0% (        0.0%     +        0.1%  )
