==185637== Cachegrind, a cache and branch-prediction profiler
==185637== Copyright (C) 2002-2017, and GNU GPL'd, by Nicholas Nethercote et al.
==185637== Using Valgrind-3.17.0 and LibVEX; rerun with -h for copyright info
==185637== Command: ./cmake-build-debug/matrix_mult_n 342 342 342 342
==185637== Parent PID: 185636
==185637== 
--185637-- warning: L3 cache found, using its data for the LL simulation.
==185637== 
==185637== I   refs:      2,023,723,719
==185637== I1  misses:            1,407
==185637== LLi misses:            1,404
==185637== I1  miss rate:          0.00%
==185637== LLi miss rate:          0.00%
==185637== 
==185637== D   refs:        930,582,549  (888,311,925 rd   + 42,270,624 wr)
==185637== D1  misses:        5,432,871  (  5,386,956 rd   +     45,915 wr)
==185637== LLd misses:           46,102  (      1,281 rd   +     44,821 wr)
==185637== D1  miss rate:           0.6% (        0.6%     +        0.1%  )
==185637== LLd miss rate:           0.0% (        0.0%     +        0.1%  )
==185637== 
==185637== LL refs:           5,434,278  (  5,388,363 rd   +     45,915 wr)
==185637== LL misses:            47,506  (      2,685 rd   +     44,821 wr)
==185637== LL miss rate:            0.0% (        0.0%     +        0.1%  )
