==184863== Cachegrind, a cache and branch-prediction profiler
==184863== Copyright (C) 2002-2017, and GNU GPL'd, by Nicholas Nethercote et al.
==184863== Using Valgrind-3.17.0 and LibVEX; rerun with -h for copyright info
==184863== Command: ./cmake-build-debug/matrix_mult_n 52 52 52 52
==184863== Parent PID: 184862
==184863== 
--184863-- warning: L3 cache found, using its data for the LL simulation.
==184863== 
==184863== I   refs:      7,769,811
==184863== I1  misses:        1,410
==184863== LLi misses:        1,407
==184863== I1  miss rate:      0.02%
==184863== LLi miss rate:      0.02%
==184863== 
==184863== D   refs:      3,539,511  (3,328,726 rd   + 210,785 wr)
==184863== D1  misses:        4,367  (    2,552 rd   +   1,815 wr)
==184863== LLd misses:        2,929  (    1,281 rd   +   1,648 wr)
==184863== D1  miss rate:       0.1% (      0.1%     +     0.9%  )
==184863== LLd miss rate:       0.1% (      0.0%     +     0.8%  )
==184863== 
==184863== LL refs:           5,777  (    3,962 rd   +   1,815 wr)
==184863== LL misses:         4,336  (    2,688 rd   +   1,648 wr)
==184863== LL miss rate:        0.0% (      0.0%     +     0.8%  )
