==184901== Cachegrind, a cache and branch-prediction profiler
==184901== Copyright (C) 2002-2017, and GNU GPL'd, by Nicholas Nethercote et al.
==184901== Using Valgrind-3.17.0 and LibVEX; rerun with -h for copyright info
==184901== Command: ./cmake-build-debug/matrix_mult_n 70 70 70 70
==184901== Parent PID: 184900
==184901== 
--184901-- warning: L3 cache found, using its data for the LL simulation.
==184901== 
==184901== I   refs:      18,336,456
==184901== I1  misses:         1,407
==184901== LLi misses:         1,404
==184901== I1  miss rate:       0.01%
==184901== LLi miss rate:       0.01%
==184901== 
==184901== D   refs:       8,394,008  (7,937,422 rd   + 456,586 wr)
==184901== D1  misses:        49,611  (   46,880 rd   +   2,731 wr)
==184901== LLd misses:         3,772  (    1,281 rd   +   2,491 wr)
==184901== D1  miss rate:        0.6% (      0.6%     +     0.6%  )
==184901== LLd miss rate:        0.0% (      0.0%     +     0.5%  )
==184901== 
==184901== LL refs:           51,018  (   48,287 rd   +   2,731 wr)
==184901== LL misses:          5,176  (    2,685 rd   +   2,491 wr)
==184901== LL miss rate:         0.0% (      0.0%     +     0.5%  )
