==184961== Cachegrind, a cache and branch-prediction profiler
==184961== Copyright (C) 2002-2017, and GNU GPL'd, by Nicholas Nethercote et al.
==184961== Using Valgrind-3.17.0 and LibVEX; rerun with -h for copyright info
==184961== Command: ./cmake-build-debug/matrix_mult_n 99 99 99 99
==184961== Parent PID: 184960
==184961== 
--184961-- warning: L3 cache found, using its data for the LL simulation.
==184961== 
==184961== I   refs:      50,693,715
==184961== I1  misses:         1,406
==184961== LLi misses:         1,403
==184961== I1  miss rate:       0.00%
==184961== LLi miss rate:       0.00%
==184961== 
==184961== D   refs:      23,265,002  (22,085,213 rd   + 1,179,789 wr)
==184961== D1  misses:       131,289  (   126,617 rd   +     4,672 wr)
==184961== LLd misses:         5,605  (     1,281 rd   +     4,324 wr)
==184961== D1  miss rate:        0.6% (       0.6%     +       0.4%  )
==184961== LLd miss rate:        0.0% (       0.0%     +       0.4%  )
==184961== 
==184961== LL refs:          132,695  (   128,023 rd   +     4,672 wr)
==184961== LL misses:          7,008  (     2,684 rd   +     4,324 wr)
==184961== LL miss rate:         0.0% (       0.0%     +       0.4%  )
