==184563== Cachegrind, a cache and branch-prediction profiler
==184563== Copyright (C) 2002-2017, and GNU GPL'd, by Nicholas Nethercote et al.
==184563== Using Valgrind-3.17.0 and LibVEX; rerun with -h for copyright info
==184563== Command: ./cmake-build-debug/matrix_mult_n 100 100 100 100
==184563== Parent PID: 184562
==184563== 
--184563-- warning: L3 cache found, using its data for the LL simulation.
==184563== 
==184563== I   refs:      52,219,027
==184563== I1  misses:           863
==184563== LLi misses:           859
==184563== I1  miss rate:       0.00%
==184563== LLi miss rate:       0.00%
==184563== 
==184563== D   refs:      23,966,078  (22,752,714 rd   + 1,213,364 wr)
==184563== D1  misses:       136,593  (   131,797 rd   +     4,796 wr)
==184563== LLd misses:         5,719  (     1,281 rd   +     4,438 wr)
==184563== D1  miss rate:        0.6% (       0.6%     +       0.4%  )
==184563== LLd miss rate:        0.0% (       0.0%     +       0.4%  )
==184563== 
==184563== LL refs:          137,456  (   132,660 rd   +     4,796 wr)
==184563== LL misses:          6,578  (     2,140 rd   +     4,438 wr)
==184563== LL miss rate:         0.0% (       0.0%     +       0.4%  )
