==162734== Cachegrind, a cache and branch-prediction profiler
==162734== Copyright (C) 2002-2017, and GNU GPL'd, by Nicholas Nethercote et al.
==162734== Using Valgrind-3.17.0 and LibVEX; rerun with -h for copyright info
==162734== Command: ./cmake-build-debug/Zadatak1_Proj 1920 1080
==162734== Parent PID: 162733
==162734== 
--162734-- warning: L3 cache found, using its data for the LL simulation.
==162734== brk segment overflow in thread #1: can't grow to 0x4c6b000
==162734== (see section Limitations in user manual)
==162734== NOTE: further instances of this message will not be shown
==162734== 
==162734== I   refs:      13,035,193,112
==162734== I1  misses:             2,749
==162734== LLi misses:             2,692
==162734== I1  miss rate:           0.00%
==162734== LLi miss rate:           0.00%
==162734== 
==162734== D   refs:       7,814,276,412  (4,332,424,823 rd   + 3,481,851,589 wr)
==162734== D1  misses:        11,730,619  (   10,363,524 rd   +     1,367,095 wr)
==162734== LLd misses:         9,194,166  (    7,827,522 rd   +     1,366,644 wr)
==162734== D1  miss rate:            0.2% (          0.2%     +           0.0%  )
==162734== LLd miss rate:            0.1% (          0.2%     +           0.0%  )
==162734== 
==162734== LL refs:           11,733,368  (   10,366,273 rd   +     1,367,095 wr)
==162734== LL misses:          9,196,858  (    7,830,214 rd   +     1,366,644 wr)
==162734== LL miss rate:             0.0% (          0.0%     +           0.0%  )
