==184473== Cachegrind, a cache and branch-prediction profiler
==184473== Copyright (C) 2002-2017, and GNU GPL'd, by Nicholas Nethercote et al.
==184473== Using Valgrind-3.17.0 and LibVEX; rerun with -h for copyright info
==184473== Command: ./cmake-build-debug/matrix_mult_n 100 100 100 100
==184473== Parent PID: 184472
==184473== 
--184473-- warning: L3 cache found, using its data for the LL simulation.
==184473== 
==184473== I   refs:      52,219,045
==184473== I1  misses:         1,409
==184473== LLi misses:         1,406
==184473== I1  miss rate:       0.00%
==184473== LLi miss rate:       0.00%
==184473== 
==184473== D   refs:      23,966,088  (22,752,719 rd   + 1,213,369 wr)
==184473== D1  misses:       136,593  (   131,797 rd   +     4,796 wr)
==184473== LLd misses:         5,719  (     1,281 rd   +     4,438 wr)
==184473== D1  miss rate:        0.6% (       0.6%     +       0.4%  )
==184473== LLd miss rate:        0.0% (       0.0%     +       0.4%  )
==184473== 
==184473== LL refs:          138,002  (   133,206 rd   +     4,796 wr)
==184473== LL misses:          7,125  (     2,687 rd   +     4,438 wr)
==184473== LL miss rate:         0.0% (       0.0%     +       0.4%  )
