==147743== Cachegrind, a cache and branch-prediction profiler
==147743== Copyright (C) 2002-2017, and GNU GPL'd, by Nicholas Nethercote et al.
==147743== Using Valgrind-3.17.0 and LibVEX; rerun with -h for copyright info
==147743== Command: ./cmake-build-debug/Zadatak1_Proj 1920 1080
==147743== Parent PID: 147742
==147743== 
--147743-- warning: L3 cache found, using its data for the LL simulation.
==147743== brk segment overflow in thread #1: can't grow to 0x4c6b000
==147743== (see section Limitations in user manual)
==147743== NOTE: further instances of this message will not be shown
==147743== 
==147743== I   refs:      13,035,183,514
==147743== I1  misses:             2,751
==147743== LLi misses:             2,721
==147743== I1  miss rate:           0.00%
==147743== LLi miss rate:           0.00%
==147743== 
==147743== D   refs:       7,814,274,212  (4,332,422,929 rd   + 3,481,851,283 wr)
==147743== D1  misses:        29,417,106  (   23,950,539 rd   +     5,466,567 wr)
==147743== LLd misses:        28,290,975  (   22,825,389 rd   +     5,465,586 wr)
==147743== D1  miss rate:            0.4% (          0.6%     +           0.2%  )
==147743== LLd miss rate:            0.4% (          0.5%     +           0.2%  )
==147743== 
==147743== LL refs:           29,419,857  (   23,953,290 rd   +     5,466,567 wr)
==147743== LL misses:         28,293,696  (   22,828,110 rd   +     5,465,586 wr)
==147743== LL miss rate:             0.1% (          0.1%     +           0.2%  )
