==147932== Cachegrind, a cache and branch-prediction profiler
==147932== Copyright (C) 2002-2017, and GNU GPL'd, by Nicholas Nethercote et al.
==147932== Using Valgrind-3.17.0 and LibVEX; rerun with -h for copyright info
==147932== Command: ./cmake-build-debug/Zadatak1_Proj 1920 1080
==147932== Parent PID: 147931
==147932== 
--147932-- warning: L3 cache found, using its data for the LL simulation.
==147932== brk segment overflow in thread #1: can't grow to 0x4c6b000
==147932== (see section Limitations in user manual)
==147932== NOTE: further instances of this message will not be shown
==147932== 
==147932== I   refs:      13,035,182,469
==147932== I1  misses:             2,754
==147932== LLi misses:             2,724
==147932== I1  miss rate:           0.00%
==147932== LLi miss rate:           0.00%
==147932== 
==147932== D   refs:       7,814,273,645  (4,332,422,612 rd   + 3,481,851,033 wr)
==147932== D1  misses:        29,418,170  (   23,951,603 rd   +     5,466,567 wr)
==147932== LLd misses:        26,058,694  (   20,593,155 rd   +     5,465,539 wr)
==147932== D1  miss rate:            0.4% (          0.6%     +           0.2%  )
==147932== LLd miss rate:            0.3% (          0.5%     +           0.2%  )
==147932== 
==147932== LL refs:           29,420,924  (   23,954,357 rd   +     5,466,567 wr)
==147932== LL misses:         26,061,418  (   20,595,879 rd   +     5,465,539 wr)
==147932== LL miss rate:             0.1% (          0.1%     +           0.2%  )
