==147312== Cachegrind, a cache and branch-prediction profiler
==147312== Copyright (C) 2002-2017, and GNU GPL'd, by Nicholas Nethercote et al.
==147312== Using Valgrind-3.17.0 and LibVEX; rerun with -h for copyright info
==147312== Command: ./cmake-build-debug/Zadatak1_Proj 1920 1080
==147312== Parent PID: 147311
==147312== 
--147312-- warning: L3 cache found, using its data for the LL simulation.
==147312== brk segment overflow in thread #1: can't grow to 0x4c6b000
==147312== (see section Limitations in user manual)
==147312== NOTE: further instances of this message will not be shown
==147312== 
==147312== I   refs:      13,035,186,276
==147312== I1  misses:             2,652
==147312== LLi misses:             2,638
==147312== I1  miss rate:           0.00%
==147312== LLi miss rate:           0.00%
==147312== 
==147312== D   refs:       7,814,275,682  (4,332,423,757 rd   + 3,481,851,925 wr)
==147312== D1  misses:        29,416,441  (   23,949,874 rd   +     5,466,567 wr)
==147312== LLd misses:        26,057,878  (   20,592,339 rd   +     5,465,539 wr)
==147312== D1  miss rate:            0.4% (          0.6%     +           0.2%  )
==147312== LLd miss rate:            0.3% (          0.5%     +           0.2%  )
==147312== 
==147312== LL refs:           29,419,093  (   23,952,526 rd   +     5,466,567 wr)
==147312== LL misses:         26,060,516  (   20,594,977 rd   +     5,465,539 wr)
==147312== LL miss rate:             0.1% (          0.1%     +           0.2%  )
